%YAML 1.1
%TAG !u! tag:unity3d.com,2011:
--- !u!29 &1
OcclusionCullingSettings:
  m_ObjectHideFlags: 0
  serializedVersion: 2
  m_OcclusionBakeSettings:
    smallestOccluder: 5
    smallestHole: 0.25
    backfaceThreshold: 100
  m_SceneGUID: 00000000000000000000000000000000
  m_OcclusionCullingData: {fileID: 0}
--- !u!104 &2
RenderSettings:
  m_ObjectHideFlags: 0
  serializedVersion: 9
  m_Fog: 0
  m_FogColor: {r: 0.5, g: 0.5, b: 0.5, a: 1}
  m_FogMode: 3
  m_FogDensity: 0.01
  m_LinearFogStart: 0
  m_LinearFogEnd: 300
  m_AmbientSkyColor: {r: 0.212, g: 0.227, b: 0.259, a: 1}
  m_AmbientEquatorColor: {r: 0.114, g: 0.125, b: 0.133, a: 1}
  m_AmbientGroundColor: {r: 0.047, g: 0.043, b: 0.035, a: 1}
  m_AmbientIntensity: 1
  m_AmbientMode: 3
  m_SubtractiveShadowColor: {r: 0.42, g: 0.478, b: 0.627, a: 1}
  m_SkyboxMaterial: {fileID: 0}
  m_HaloStrength: 0.5
  m_FlareStrength: 1
  m_FlareFadeSpeed: 3
  m_HaloTexture: {fileID: 0}
  m_SpotCookie: {fileID: 10001, guid: 0000000000000000e000000000000000, type: 0}
  m_DefaultReflectionMode: 0
  m_DefaultReflectionResolution: 128
  m_ReflectionBounces: 1
  m_ReflectionIntensity: 1
  m_CustomReflection: {fileID: 0}
  m_Sun: {fileID: 0}
  m_IndirectSpecularColor: {r: 0, g: 0, b: 0, a: 1}
  m_UseRadianceAmbientProbe: 0
--- !u!157 &3
LightmapSettings:
  m_ObjectHideFlags: 0
  serializedVersion: 12
  m_GIWorkflowMode: 1
  m_GISettings:
    serializedVersion: 2
    m_BounceScale: 1
    m_IndirectOutputScale: 1
    m_AlbedoBoost: 1
    m_EnvironmentLightingMode: 0
    m_EnableBakedLightmaps: 0
    m_EnableRealtimeLightmaps: 0
  m_LightmapEditorSettings:
    serializedVersion: 12
    m_Resolution: 2
    m_BakeResolution: 40
    m_AtlasSize: 1024
    m_AO: 0
    m_AOMaxDistance: 1
    m_CompAOExponent: 1
    m_CompAOExponentDirect: 0
    m_ExtractAmbientOcclusion: 0
    m_Padding: 2
    m_LightmapParameters: {fileID: 0}
    m_LightmapsBakeMode: 1
    m_TextureCompression: 1
    m_FinalGather: 0
    m_FinalGatherFiltering: 1
    m_FinalGatherRayCount: 256
    m_ReflectionCompression: 2
    m_MixedBakeMode: 2
    m_BakeBackend: 0
    m_PVRSampling: 1
    m_PVRDirectSampleCount: 32
    m_PVRSampleCount: 500
    m_PVRBounces: 2
    m_PVREnvironmentSampleCount: 500
    m_PVREnvironmentReferencePointCount: 2048
    m_PVRFilteringMode: 2
    m_PVRDenoiserTypeDirect: 0
    m_PVRDenoiserTypeIndirect: 0
    m_PVRDenoiserTypeAO: 0
    m_PVRFilterTypeDirect: 0
    m_PVRFilterTypeIndirect: 0
    m_PVRFilterTypeAO: 0
    m_PVREnvironmentMIS: 0
    m_PVRCulling: 1
    m_PVRFilteringGaussRadiusDirect: 1
    m_PVRFilteringGaussRadiusIndirect: 5
    m_PVRFilteringGaussRadiusAO: 2
    m_PVRFilteringAtrousPositionSigmaDirect: 0.5
    m_PVRFilteringAtrousPositionSigmaIndirect: 2
    m_PVRFilteringAtrousPositionSigmaAO: 1
    m_ExportTrainingData: 0
    m_TrainingDataDestination: TrainingData
    m_LightProbeSampleCountMultiplier: 4
  m_LightingDataAsset: {fileID: 0}
  m_LightingSettings: {fileID: 0}
--- !u!196 &4
NavMeshSettings:
  serializedVersion: 2
  m_ObjectHideFlags: 0
  m_BuildSettings:
    serializedVersion: 2
    agentTypeID: 0
    agentRadius: 0.5
    agentHeight: 2
    agentSlope: 45
    agentClimb: 0.4
    ledgeDropHeight: 0
    maxJumpAcrossDistance: 0
    minRegionArea: 2
    manualCellSize: 0
    cellSize: 0.16666667
    manualTileSize: 0
    tileSize: 256
    accuratePlacement: 0
    maxJobWorkers: 0
    preserveTilesOutsideBounds: 0
    debug:
      m_Flags: 0
  m_NavMeshData: {fileID: 0}
--- !u!4 &450813373 stripped
Transform:
  m_CorrespondingSourceObject: {fileID: 7440905857556400839, guid: 46cb65a3b57f59a40ba71a2744cc0cfc, type: 3}
  m_PrefabInstance: {fileID: 7440905857645877114}
  m_PrefabAsset: {fileID: 0}
--- !u!1001 &758213474
PrefabInstance:
  m_ObjectHideFlags: 0
  serializedVersion: 2
  m_Modification:
    m_TransformParent: {fileID: 0}
    m_Modifications:
    - target: {fileID: 3311599775251091665, guid: ca547b27a0ca71b418fa2c76884c2f64, type: 3}
      propertyPath: m_RootOrder
      value: 1
      objectReference: {fileID: 0}
    - target: {fileID: 3311599775251091665, guid: ca547b27a0ca71b418fa2c76884c2f64, type: 3}
      propertyPath: m_LocalPosition.x
      value: 0
      objectReference: {fileID: 0}
    - target: {fileID: 3311599775251091665, guid: ca547b27a0ca71b418fa2c76884c2f64, type: 3}
      propertyPath: m_LocalPosition.y
      value: 15.1
      objectReference: {fileID: 0}
    - target: {fileID: 3311599775251091665, guid: ca547b27a0ca71b418fa2c76884c2f64, type: 3}
      propertyPath: m_LocalPosition.z
      value: 0
      objectReference: {fileID: 0}
    - target: {fileID: 3311599775251091665, guid: ca547b27a0ca71b418fa2c76884c2f64, type: 3}
      propertyPath: m_LocalRotation.w
      value: 1
      objectReference: {fileID: 0}
    - target: {fileID: 3311599775251091665, guid: ca547b27a0ca71b418fa2c76884c2f64, type: 3}
      propertyPath: m_LocalRotation.x
      value: 0
      objectReference: {fileID: 0}
    - target: {fileID: 3311599775251091665, guid: ca547b27a0ca71b418fa2c76884c2f64, type: 3}
      propertyPath: m_LocalRotation.y
      value: 0
      objectReference: {fileID: 0}
    - target: {fileID: 3311599775251091665, guid: ca547b27a0ca71b418fa2c76884c2f64, type: 3}
      propertyPath: m_LocalRotation.z
      value: 0
      objectReference: {fileID: 0}
    - target: {fileID: 3311599775251091665, guid: ca547b27a0ca71b418fa2c76884c2f64, type: 3}
      propertyPath: m_LocalEulerAnglesHint.x
      value: 0
      objectReference: {fileID: 0}
    - target: {fileID: 3311599775251091665, guid: ca547b27a0ca71b418fa2c76884c2f64, type: 3}
      propertyPath: m_LocalEulerAnglesHint.y
      value: 0
      objectReference: {fileID: 0}
    - target: {fileID: 3311599775251091665, guid: ca547b27a0ca71b418fa2c76884c2f64, type: 3}
      propertyPath: m_LocalEulerAnglesHint.z
      value: 0
      objectReference: {fileID: 0}
    - target: {fileID: 3311599775251091667, guid: ca547b27a0ca71b418fa2c76884c2f64, type: 3}
      propertyPath: m_Name
      value: SmallWheel (2)
      objectReference: {fileID: 0}
    m_RemovedComponents: []
  m_SourcePrefab: {fileID: 100100000, guid: ca547b27a0ca71b418fa2c76884c2f64, type: 3}
--- !u!1001 &3377691278573955679
PrefabInstance:
  m_ObjectHideFlags: 0
  serializedVersion: 2
  m_Modification:
    m_TransformParent: {fileID: 0}
    m_Modifications:
    - target: {fileID: 835736100334916486, guid: b105159753d317247a4996eab892bfc3, type: 3}
      propertyPath: m_Name
      value: BigWheel
      objectReference: {fileID: 0}
    - target: {fileID: 2415322585641626840, guid: b105159753d317247a4996eab892bfc3, type: 3}
      propertyPath: m_RootOrder
      value: 4
      objectReference: {fileID: 0}
    - target: {fileID: 2415322585641626840, guid: b105159753d317247a4996eab892bfc3, type: 3}
      propertyPath: m_LocalPosition.x
      value: 0
      objectReference: {fileID: 0}
    - target: {fileID: 2415322585641626840, guid: b105159753d317247a4996eab892bfc3, type: 3}
      propertyPath: m_LocalPosition.y
      value: 5.75
      objectReference: {fileID: 0}
    - target: {fileID: 2415322585641626840, guid: b105159753d317247a4996eab892bfc3, type: 3}
      propertyPath: m_LocalPosition.z
      value: 0
      objectReference: {fileID: 0}
    - target: {fileID: 2415322585641626840, guid: b105159753d317247a4996eab892bfc3, type: 3}
      propertyPath: m_LocalRotation.w
      value: 1
      objectReference: {fileID: 0}
    - target: {fileID: 2415322585641626840, guid: b105159753d317247a4996eab892bfc3, type: 3}
      propertyPath: m_LocalRotation.x
      value: 0
      objectReference: {fileID: 0}
    - target: {fileID: 2415322585641626840, guid: b105159753d317247a4996eab892bfc3, type: 3}
      propertyPath: m_LocalRotation.y
      value: 0
      objectReference: {fileID: 0}
    - target: {fileID: 2415322585641626840, guid: b105159753d317247a4996eab892bfc3, type: 3}
      propertyPath: m_LocalRotation.z
      value: 0
      objectReference: {fileID: 0}
    - target: {fileID: 2415322585641626840, guid: b105159753d317247a4996eab892bfc3, type: 3}
      propertyPath: m_LocalEulerAnglesHint.x
      value: 0
      objectReference: {fileID: 0}
    - target: {fileID: 2415322585641626840, guid: b105159753d317247a4996eab892bfc3, type: 3}
      propertyPath: m_LocalEulerAnglesHint.y
      value: 0
      objectReference: {fileID: 0}
    - target: {fileID: 2415322585641626840, guid: b105159753d317247a4996eab892bfc3, type: 3}
      propertyPath: m_LocalEulerAnglesHint.z
      value: 0
      objectReference: {fileID: 0}
    m_RemovedComponents: []
  m_SourcePrefab: {fileID: 100100000, guid: b105159753d317247a4996eab892bfc3, type: 3}
--- !u!1001 &4217341719185389327
PrefabInstance:
  m_ObjectHideFlags: 0
  serializedVersion: 2
  m_Modification:
    m_TransformParent: {fileID: 0}
    m_Modifications:
    - target: {fileID: 4217341717482161234, guid: 5e066bbf8a670ed4da9c63c4774e6976, type: 3}
      propertyPath: m_Name
      value: colorChanger
      objectReference: {fileID: 0}
    - target: {fileID: 4217341717482161263, guid: 5e066bbf8a670ed4da9c63c4774e6976, type: 3}
      propertyPath: m_RootOrder
      value: 5
      objectReference: {fileID: 0}
    - target: {fileID: 4217341717482161263, guid: 5e066bbf8a670ed4da9c63c4774e6976, type: 3}
      propertyPath: m_LocalPosition.x
      value: 0.023
      objectReference: {fileID: 0}
    - target: {fileID: 4217341717482161263, guid: 5e066bbf8a670ed4da9c63c4774e6976, type: 3}
      propertyPath: m_LocalPosition.y
      value: 5.776
      objectReference: {fileID: 0}
    - target: {fileID: 4217341717482161263, guid: 5e066bbf8a670ed4da9c63c4774e6976, type: 3}
      propertyPath: m_LocalPosition.z
      value: 0
      objectReference: {fileID: 0}
    - target: {fileID: 4217341717482161263, guid: 5e066bbf8a670ed4da9c63c4774e6976, type: 3}
      propertyPath: m_LocalRotation.w
      value: 1
      objectReference: {fileID: 0}
    - target: {fileID: 4217341717482161263, guid: 5e066bbf8a670ed4da9c63c4774e6976, type: 3}
      propertyPath: m_LocalRotation.x
      value: 0
      objectReference: {fileID: 0}
    - target: {fileID: 4217341717482161263, guid: 5e066bbf8a670ed4da9c63c4774e6976, type: 3}
      propertyPath: m_LocalRotation.y
      value: 0
      objectReference: {fileID: 0}
    - target: {fileID: 4217341717482161263, guid: 5e066bbf8a670ed4da9c63c4774e6976, type: 3}
      propertyPath: m_LocalRotation.z
      value: 0
      objectReference: {fileID: 0}
    - target: {fileID: 4217341717482161263, guid: 5e066bbf8a670ed4da9c63c4774e6976, type: 3}
      propertyPath: m_LocalEulerAnglesHint.x
      value: 0
      objectReference: {fileID: 0}
    - target: {fileID: 4217341717482161263, guid: 5e066bbf8a670ed4da9c63c4774e6976, type: 3}
      propertyPath: m_LocalEulerAnglesHint.y
      value: 0
      objectReference: {fileID: 0}
    - target: {fileID: 4217341717482161263, guid: 5e066bbf8a670ed4da9c63c4774e6976, type: 3}
      propertyPath: m_LocalEulerAnglesHint.z
      value: 0
      objectReference: {fileID: 0}
    m_RemovedComponents: []
  m_SourcePrefab: {fileID: 100100000, guid: 5e066bbf8a670ed4da9c63c4774e6976, type: 3}
--- !u!1001 &4527116415535564502
PrefabInstance:
  m_ObjectHideFlags: 0
  serializedVersion: 2
  m_Modification:
    m_TransformParent: {fileID: 0}
    m_Modifications:
    - target: {fileID: 2532870201852217195, guid: a38845242a50cca4b89f6418f597b706, type: 3}
      propertyPath: m_RootOrder
      value: 6
      objectReference: {fileID: 0}
    - target: {fileID: 2532870201852217195, guid: a38845242a50cca4b89f6418f597b706, type: 3}
      propertyPath: m_LocalPosition.x
      value: -0.34668636
      objectReference: {fileID: 0}
    - target: {fileID: 2532870201852217195, guid: a38845242a50cca4b89f6418f597b706, type: 3}
      propertyPath: m_LocalPosition.y
      value: 21.887306
      objectReference: {fileID: 0}
    - target: {fileID: 2532870201852217195, guid: a38845242a50cca4b89f6418f597b706, type: 3}
      propertyPath: m_LocalPosition.z
      value: 0
      objectReference: {fileID: 0}
    - target: {fileID: 2532870201852217195, guid: a38845242a50cca4b89f6418f597b706, type: 3}
      propertyPath: m_LocalRotation.w
      value: 1
      objectReference: {fileID: 0}
    - target: {fileID: 2532870201852217195, guid: a38845242a50cca4b89f6418f597b706, type: 3}
      propertyPath: m_LocalRotation.x
      value: 0
      objectReference: {fileID: 0}
    - target: {fileID: 2532870201852217195, guid: a38845242a50cca4b89f6418f597b706, type: 3}
      propertyPath: m_LocalRotation.y
      value: 0
      objectReference: {fileID: 0}
    - target: {fileID: 2532870201852217195, guid: a38845242a50cca4b89f6418f597b706, type: 3}
      propertyPath: m_LocalRotation.z
      value: 0
      objectReference: {fileID: 0}
    - target: {fileID: 2532870201852217195, guid: a38845242a50cca4b89f6418f597b706, type: 3}
      propertyPath: m_LocalEulerAnglesHint.x
      value: 0
      objectReference: {fileID: 0}
    - target: {fileID: 2532870201852217195, guid: a38845242a50cca4b89f6418f597b706, type: 3}
      propertyPath: m_LocalEulerAnglesHint.y
      value: 0
      objectReference: {fileID: 0}
    - target: {fileID: 2532870201852217195, guid: a38845242a50cca4b89f6418f597b706, type: 3}
      propertyPath: m_LocalEulerAnglesHint.z
      value: 0
      objectReference: {fileID: 0}
    - target: {fileID: 4659615012597364626, guid: a38845242a50cca4b89f6418f597b706, type: 3}
      propertyPath: m_Name
      value: finish-line
      objectReference: {fileID: 0}
    m_RemovedComponents: []
  m_SourcePrefab: {fileID: 100100000, guid: a38845242a50cca4b89f6418f597b706, type: 3}
--- !u!1001 &7440905857645877114
PrefabInstance:
  m_ObjectHideFlags: 0
  serializedVersion: 2
  m_Modification:
    m_TransformParent: {fileID: 0}
    m_Modifications:
    - target: {fileID: 7440905857556400835, guid: 46cb65a3b57f59a40ba71a2744cc0cfc, type: 3}
      propertyPath: m_Name
      value: Player
      objectReference: {fileID: 0}
    - target: {fileID: 7440905857556400839, guid: 46cb65a3b57f59a40ba71a2744cc0cfc, type: 3}
      propertyPath: m_RootOrder
      value: 2
      objectReference: {fileID: 0}
    - target: {fileID: 7440905857556400839, guid: 46cb65a3b57f59a40ba71a2744cc0cfc, type: 3}
      propertyPath: m_LocalPosition.x
      value: 0
      objectReference: {fileID: 0}
    - target: {fileID: 7440905857556400839, guid: 46cb65a3b57f59a40ba71a2744cc0cfc, type: 3}
      propertyPath: m_LocalPosition.y
      value: -3.75
      objectReference: {fileID: 0}
    - target: {fileID: 7440905857556400839, guid: 46cb65a3b57f59a40ba71a2744cc0cfc, type: 3}
      propertyPath: m_LocalPosition.z
      value: 0
      objectReference: {fileID: 0}
    - target: {fileID: 7440905857556400839, guid: 46cb65a3b57f59a40ba71a2744cc0cfc, type: 3}
      propertyPath: m_LocalRotation.w
      value: 1
      objectReference: {fileID: 0}
    - target: {fileID: 7440905857556400839, guid: 46cb65a3b57f59a40ba71a2744cc0cfc, type: 3}
      propertyPath: m_LocalRotation.x
      value: 0
      objectReference: {fileID: 0}
    - target: {fileID: 7440905857556400839, guid: 46cb65a3b57f59a40ba71a2744cc0cfc, type: 3}
      propertyPath: m_LocalRotation.y
      value: 0
      objectReference: {fileID: 0}
    - target: {fileID: 7440905857556400839, guid: 46cb65a3b57f59a40ba71a2744cc0cfc, type: 3}
      propertyPath: m_LocalRotation.z
      value: 0
      objectReference: {fileID: 0}
    - target: {fileID: 7440905857556400839, guid: 46cb65a3b57f59a40ba71a2744cc0cfc, type: 3}
      propertyPath: m_LocalEulerAnglesHint.x
      value: 0
      objectReference: {fileID: 0}
    - target: {fileID: 7440905857556400839, guid: 46cb65a3b57f59a40ba71a2744cc0cfc, type: 3}
      propertyPath: m_LocalEulerAnglesHint.y
      value: 0
      objectReference: {fileID: 0}
    - target: {fileID: 7440905857556400839, guid: 46cb65a3b57f59a40ba71a2744cc0cfc, type: 3}
      propertyPath: m_LocalEulerAnglesHint.z
      value: 0
      objectReference: {fileID: 0}
    m_RemovedComponents: []
  m_SourcePrefab: {fileID: 100100000, guid: 46cb65a3b57f59a40ba71a2744cc0cfc, type: 3}
--- !u!1001 &7645002921726152620
PrefabInstance:
  m_ObjectHideFlags: 0
  serializedVersion: 2
  m_Modification:
    m_TransformParent: {fileID: 0}
    m_Modifications:
    - target: {fileID: 7645002923523546153, guid: be95c2c57427e1f439da81f0be200b9b, type: 3}
      propertyPath: m_RootOrder
      value: 3
      objectReference: {fileID: 0}
    - target: {fileID: 7645002923523546153, guid: be95c2c57427e1f439da81f0be200b9b, type: 3}
      propertyPath: m_LocalPosition.x
      value: 0
      objectReference: {fileID: 0}
    - target: {fileID: 7645002923523546153, guid: be95c2c57427e1f439da81f0be200b9b, type: 3}
      propertyPath: m_LocalPosition.y
      value: -4.55
      objectReference: {fileID: 0}
    - target: {fileID: 7645002923523546153, guid: be95c2c57427e1f439da81f0be200b9b, type: 3}
      propertyPath: m_LocalPosition.z
      value: 0
      objectReference: {fileID: 0}
    - target: {fileID: 7645002923523546153, guid: be95c2c57427e1f439da81f0be200b9b, type: 3}
      propertyPath: m_LocalRotation.w
      value: 1
      objectReference: {fileID: 0}
    - target: {fileID: 7645002923523546153, guid: be95c2c57427e1f439da81f0be200b9b, type: 3}
      propertyPath: m_LocalRotation.x
      value: 0
      objectReference: {fileID: 0}
    - target: {fileID: 7645002923523546153, guid: be95c2c57427e1f439da81f0be200b9b, type: 3}
      propertyPath: m_LocalRotation.y
      value: 0
      objectReference: {fileID: 0}
    - target: {fileID: 7645002923523546153, guid: be95c2c57427e1f439da81f0be200b9b, type: 3}
      propertyPath: m_LocalRotation.z
      value: 0
      objectReference: {fileID: 0}
    - target: {fileID: 7645002923523546153, guid: be95c2c57427e1f439da81f0be200b9b, type: 3}
      propertyPath: m_LocalEulerAnglesHint.x
      value: 0
      objectReference: {fileID: 0}
    - target: {fileID: 7645002923523546153, guid: be95c2c57427e1f439da81f0be200b9b, type: 3}
      propertyPath: m_LocalEulerAnglesHint.y
      value: 0
      objectReference: {fileID: 0}
    - target: {fileID: 7645002923523546153, guid: be95c2c57427e1f439da81f0be200b9b, type: 3}
      propertyPath: m_LocalEulerAnglesHint.z
      value: 0
      objectReference: {fileID: 0}
    - target: {fileID: 7645002923523546157, guid: be95c2c57427e1f439da81f0be200b9b, type: 3}
      propertyPath: m_Name
      value: Square
      objectReference: {fileID: 0}
    m_RemovedComponents: []
  m_SourcePrefab: {fileID: 100100000, guid: be95c2c57427e1f439da81f0be200b9b, type: 3}
--- !u!1001 &8303815184445561564
PrefabInstance:
  m_ObjectHideFlags: 0
  serializedVersion: 2
  m_Modification:
    m_TransformParent: {fileID: 0}
    m_Modifications:
    - target: {fileID: 8303815184551174748, guid: b3fed2fabdf95434996e723e28247d27, type: 3}
      propertyPath: m_RootOrder
      value: 0
      objectReference: {fileID: 0}
    - target: {fileID: 8303815184551174748, guid: b3fed2fabdf95434996e723e28247d27, type: 3}
      propertyPath: m_LocalPosition.x
      value: 0
      objectReference: {fileID: 0}
    - target: {fileID: 8303815184551174748, guid: b3fed2fabdf95434996e723e28247d27, type: 3}
      propertyPath: m_LocalPosition.y
      value: 0
      objectReference: {fileID: 0}
    - target: {fileID: 8303815184551174748, guid: b3fed2fabdf95434996e723e28247d27, type: 3}
      propertyPath: m_LocalPosition.z
      value: -10
      objectReference: {fileID: 0}
    - target: {fileID: 8303815184551174748, guid: b3fed2fabdf95434996e723e28247d27, type: 3}
      propertyPath: m_LocalRotation.w
      value: 1
      objectReference: {fileID: 0}
    - target: {fileID: 8303815184551174748, guid: b3fed2fabdf95434996e723e28247d27, type: 3}
      propertyPath: m_LocalRotation.x
      value: 0
      objectReference: {fileID: 0}
    - target: {fileID: 8303815184551174748, guid: b3fed2fabdf95434996e723e28247d27, type: 3}
      propertyPath: m_LocalRotation.y
      value: 0
      objectReference: {fileID: 0}
    - target: {fileID: 8303815184551174748, guid: b3fed2fabdf95434996e723e28247d27, type: 3}
      propertyPath: m_LocalRotation.z
      value: 0
      objectReference: {fileID: 0}
    - target: {fileID: 8303815184551174748, guid: b3fed2fabdf95434996e723e28247d27, type: 3}
      propertyPath: m_LocalEulerAnglesHint.x
      value: 0
      objectReference: {fileID: 0}
    - target: {fileID: 8303815184551174748, guid: b3fed2fabdf95434996e723e28247d27, type: 3}
      propertyPath: m_LocalEulerAnglesHint.y
      value: 0
      objectReference: {fileID: 0}
    - target: {fileID: 8303815184551174748, guid: b3fed2fabdf95434996e723e28247d27, type: 3}
      propertyPath: m_LocalEulerAnglesHint.z
      value: 0
      objectReference: {fileID: 0}
    - target: {fileID: 8303815184551174749, guid: b3fed2fabdf95434996e723e28247d27, type: 3}
      propertyPath: playerTransform
      value: 
      objectReference: {fileID: 450813373}
    - target: {fileID: 8303815184551174816, guid: b3fed2fabdf95434996e723e28247d27, type: 3}
      propertyPath: m_Name
      value: Main Camera
      objectReference: {fileID: 0}
    m_RemovedComponents: []
  m_SourcePrefab: {fileID: 100100000, guid: b3fed2fabdf95434996e723e28247d27, type: 3}
