%YAML 1.1
%TAG !u! tag:unity3d.com,2011:
--- !u!114 &11400000
MonoBehaviour:
  m_ObjectHideFlags: 0
  m_CorrespondingSourceObject: {fileID: 0}
  m_PrefabInstance: {fileID: 0}
  m_PrefabAsset: {fileID: 0}
  m_GameObject: {fileID: 0}
  m_Enabled: 1
  m_EditorHideFlags: 0
  m_Script: {fileID: 11500000, guid: eb62c2e516ddd5a4d806bea0cce2264f, type: 3}
  m_Name: EnemigoDificil
  m_EditorClassIdentifier: 
  enemyPrefab: {fileID: 3426354674203711288, guid: ba3f563e919626a4b9089eb192b9c775,
    type: 3}
  hp: 3
  atk: 4
  nivel: 3
