%YAML 1.1
%TAG !u! tag:unity3d.com,2011:
--- !u!1045 &1
EditorBuildSettings:
  m_ObjectHideFlags: 0
  serializedVersion: 2
  m_Scenes:
  - enabled: 1
    path: Assets/Scenes/GameOver.unity
    guid: c5a06ad2006f5a0469677ffcf2b0ac20
  - enabled: 1
    path: Assets/Scenes/Main.unity
    guid: 2cda990e2423bbf4892e6590ba056729
  m_configObjects: {}
